172800	0.337255304522042
259200	0.361038849943993
345600	0.359474863766458
432000	0.251353386614934
518400	0.222719413979231
604800	0.203896849276692
691200	0.270846989068332
777600	0.182427718804125
864000	0.176247972927917
950400	0.170841811548125
1036800	0.16547807121
1123200	0.161748035337631
1209600	0.158557285106458
1296000	0.156599691666764
1382400	0.153670568330028
1468800	0.151702421129787
1555200	0.148991441058437
1641600	0.145396289792269
1728000	0.142421640894979
1814400	0.140813523575242
1900800	0.139513169541601
1987200	0.13821281550796
2073600	0.13691246147432
2160000	0.135612107440679
2246400	0.134311753407039
2332800	0.133011399373398
2419200	0.131711045339758
2505600	0.130410691306117
2592000	0.129605606762172
2678400	0.12988384724375
2764800	0.13019015055656
2851200	0.129887733015669
2937600	0.129497041952193
3024000	0.127621211623541
3110400	0.146684226228541
3196800	0.1456638104075
3283200	0.144512680469096
3369600	0.146080193882716
3456000	0.144146891648333
3542400	0.142630397567708
3628800	0.140563150791042
3715200	0.140150194478333
3801600	0.140583215029791
3888000	0.139742699757708
3974400	0.139312711358262
4060800	0.138746545802257
4147200	0.137197928320833
4233600	0.136726677471875
4320000	0.136086682946232
4406400	0.134511054350815
4492800	0.133070930223507
4579200	0.13183701962625
4665600	0.13121253713125
4752000	0.129731571107708
4838400	0.1298878213575
4924800	0.129887958228333
5011200	0.128984858455625
5097600	0.127878344705625
5184000	0.137970539520416
5270400	0.137508965127291
5356800	0.13800043255625
5443200	0.136015255113958
5529600	0.136803921823789
5616000	0.136197321171846
5702400	0.137133738106875
5788800	0.137672447217292
5875200	0.137285304788333
5961600	0.136328243065416
6048000	0.134750283503541
6134400	0.134590543827708
6220800	0.134324973305208
6307200	0.13435845322966
6393600	0.13607867162875
6480000	0.135701385281875
6566400	0.134888977884375
6652800	0.135010559064166
6739200	0.135132623282083
6825600	0.135092223358958
6912000	0.135137346641041
6998400	0.133580519278011
7084800	0.13230735150125
7171200	0.132742534940613
7257600	0.132299501089583
7344000	0.132900273833541
7430400	0.133070644115416
7516800	0.132627993563958
7603200	0.131318452307291
7689600	0.131136611692292
7776000	0.130727319371666
7862400	0.129727377153541
7948800	0.130079298102708
8035200	0.129825046820416
8121600	0.130045939871875
8208000	0.127802115319791
8294400	0.129025843423541
8380800	0.130188783831742
8467200	0.129438121657316
8553600	0.129800652269375
8640000	0.130302214769375
8726400	0.130553400200772
8812800	0.130323044655836
8899200	0.130242626692291
8985600	0.129280384653542
9072000	0.129886175474583
9158400	0.128902045538125
9244800	0.128841109974375
9331200	0.128794827525625
9417600	0.128133983666458
9504000	0.128015778358958
9590400	0.127454627781875
9676800	0.125986099884167
9763200	0.126290873936041
9849600	0.127497244410625
9936000	0.12650925556375
10022400	0.127150722948958
10108800	0.127482398205208
10195200	0.127640583013874
10281600	0.127787161569021
10368000	0.127933740124167
10454400	0.128435221815305
10540800	0.128656356016875
10627200	0.129327757737675
10713600	0.130080083376601
10800000	0.129654787417291
10886400	0.129617835234791
10972800	0.130251990396041
11059200	0.128907367695833
11145600	0.128534912889375
11232000	0.128798914484729
11318400	0.128799465128388
11404800	0.127971728454469
11491200	0.127505375973212
11577600	0.127356393252844
11664000	0.126907617761245
11750400	0.126552117445416
11836800	0.126360310649791
11923200	0.126145600415
12009600	0.125922683748333
12096000	0.126324531598416
12182400	0.126536318204375
12268800	0.125022749456512
12355200	0.126077086145942
12441600	0.126908211241584
12528000	0.126994600053699
12614400	0.126980667413716
12700800	0.126966734773734
12787200	0.126952802133751
12873600	0.127528273712103
12960000	0.12795943502227
13046400	0.128589050665104
13132800	0.128324337123438
13219200	0.126997396060649
13305600	0.126447683906099
13392000	0.126632550705208
13478400	0.127009696923849
13564800	0.127207396275062
13651200	0.126363796657107
13737600	0.127717243945208
13824000	0.126318591133368
13910400	0.124376278709375
13996800	0.124877371100416
14083200	0.125624115742239
14169600	0.125390022523125
14256000	0.125191154088117
14342400	0.125312606837436
14428800	0.1260083672975
14515200	0.126547467738125
14601600	0.126184303095208
14688000	0.126450092789375
14774400	0.127083600250092
14860800	0.127029062058271
14947200	0.127915526492291
15033600	0.127301767024583
15120000	0.126981537915
15206400	0.127850826178125
15292800	0.129191042640625
15379200	0.129194291717916
15465600	0.128334286039166
15552000	0.127134019156666
15638400	0.1262775702025
15724800	0.125882202705833
15811200	0.125980186409031
15897600	0.126485857393312
15984000	0.127570614606695
16070400	0.126050539801229
16156800	0.126285324442531
16243200	0.12811888055294
16329600	0.128639028110955
16416000	0.129159175668969
16502400	0.129679323226984
16588800	0.130199470784999
16675200	0.129099246479357
16761600	0.128587698372559
16848000	0.127934226287897
16934400	0.127265451303771
17020800	0.127077748124166
17107200	0.126870079581666
17193600	0.127128213960833
17280000	0.127544513493819
17366400	0.125404094761875
17452800	0.124227896058125
17539200	0.123619596688958
17625600	0.123407829556042
17712000	0.123095758977282
17798400	0.121606857426094
17884800	0.120368500173541
17971200	0.12011043755125
18057600	0.125006337685607
18144000	0.12475956755474
18230400	0.12483667538406
18316800	0.118881394406387
18403200	0.118014406104738
18489600	0.117874229896531
18576000	0.118781766856875
18662400	0.119023416615416
18748800	0.120238391993064
18835200	0.118651419993339
18921600	0.123412544586125
19008000	0.123281193195567
19094400	0.123697268075135
19180800	0.117938168134018
19267200	0.123470754076842
19353600	0.123397218098542
19440000	0.123395988711366
19526400	0.122771151733993
19612800	0.116202354896531
19699200	0.115955379083396
19785600	0.116686342706083
19872000	0.116039026705328
19958400	0.115147344557821
20044800	0.12243730338207
20131200	0.12210072796625
20217600	0.111381380850091
20304000	0.11982787878372
20390400	0.119263507244334
20476800	0.118967051534375
20563200	0.118487854397291
20649600	0.118192644607291
20736000	0.117423598848333
20822400	0.117133790440625
20908800	0.104254564575
20995200	0.104390713960833
21081600	0.104051636969709
21168000	0.10322098791
21254400	0.102377931042063
21340800	0.101637072744282
21427200	0.114955796045855
21513600	0.100968326602251
21600000	0.115000742091637
21686400	0.114379219858624
21772800	0.114415321217393
21859200	0.098588347708729
21945600	0.112414346929652
22032000	0.112062436521991
22118400	0.111706110539782
22204800	0.0953426193725
22291200	0.09423856141963
22377600	0.110512177786041
22464000	0.109689051841875
22550400	0.091824640180208
22636800	0.107963486520972
22723200	0.10758090102154
22809600	0.107259368811349
22896000	0.107727195629166
22982400	0.106244248581263
23068800	0.106982425309551
23155200	0.108912903556666
23241600	0.109013291692291
23328000	0.10910362494875
23414400	0.109219434336771
23500800	0.109330892670104
23587200	0.109442351003438
23673600	0.109553809336771
23760000	0.109016420450387
23846400	0.109394509324474
23932800	0.109549458282083
24019200	0.110182599796666
24105600	0.109868273721041
24192000	0.109939552712229
24278400	0.110111305496041
24364800	0.110011855572083
24451200	0.109705650158209
24537600	0.10930515340096
24624000	0.108895396038333
24710400	0.108609504165
24796800	0.108246336217979
24883200	0.108607463831042
24969600	0.10885957968401
25056000	0.109247206799791
25142400	0.109284895833333
25228800	0.0687140625
25315200	0.0687140625
25401600	0.0687140625
25488000	0.0687140625
25574400	0.0687140625
25660800	0.0687140625
25747200	0.0687140625
25833600	0.0687140625
25920000	0.0687140625
26006400	0.0687140625
26092800	0.0687140625

